200820,-32.954105,-60.645849
200824,-35.476456,-69.581138
200883,-43.257739,-65.302703
200914,-34.160267,-58.959697
200963,-22.520278,-63.798148
200988,-32.940945,-60.678563
201069,-34.568808,-58.446784
201070,-34.607128,-58.397064
201153,-34.558062,-58.465166
201165,-32.897339,-68.838646
201177,-34.619276,-58.440554
201186,-34.577347,-58.478022
201207,-35.470430,-69.585771
226241,-34.583436,-58.480877
226667,-34.829021,-58.396676
226674,-38.951614,-68.075555
228332,-34.552799,-58.481745
292817,-34.507634,-58.497330
292818,-34.595690,-58.393880
292920,-34.582998,-58.394939
292957,-34.572233,-58.420504
292958,-34.573592,-58.475251
292960,-34.550175,-58.476814
293148,-34.569689,-58.416967
293210,-34.599365,-58.512280
293821,-34.655010,-58.552677
293823,-34.577737,-58.606293
293844,-34.628544,-58.369698
293845,-34.563789,-58.436553
294044,-34.576832,-58.460167
294263,-26.174229,-58.188066
294267,-31.421528,-64.184190
294518,-34.552059,-58.495167
294529,-34.590281,-58.399716
294530,-34.585068,-58.430745
294854,-34.603060,-58.437958
294858,-34.525050,-58.468136
294885,-34.567068,-58.457775
294933,-34.588568,-58.429846
294941,-34.593810,-58.404485
294942,-34.598561,-58.513216
294943,-34.574275,-58.475447
294945,-34.549366,-58.481779
295004,-34.602226,-58.374440
295005,-34.608751,-58.393493
295006,-34.612356,-58.373148
295007,-34.601281,-58.378384
295039,-34.571845,-58.441587
295168,-34.579277,-58.479705
295170,-34.592994,-58.501565
295200,-34.486554,-58.517938
295204,-34.545985,-58.480377
295894,-34.561361,-58.463758
295899,-34.589493,-58.406251
295901,-34.587380,-58.433600
295902,-34.571128,-58.480911
295905,-34.462354,-58.914451
295906,-34.591951,-59.108678
295907,-34.487956,-58.729200
295908,-32.943302,-60.642630
295911,-34.913786,-57.960939
295912,-42.776803,-65.026576
295913,-34.640962,-58.485950
295914,-33.301797,-66.330874
295917,-38.748738,-62.231802
295918,-34.588298,-58.629132
295919,-36.761692,-59.842213
296727,-34.578100,-58.608237
298097,-34.598224,-58.418875
299280,-34.594934,-58.471861
301148,-34.600258,-58.438031
305639,-34.481999,-58.555670
308201,-34.590716,-58.393422
312562,-38.024249,-57.577326
312634,-34.576890,-58.490411
312644,-34.604352,-58.412231
314437,-37.974894,-57.570352
314488,-26.822893,-65.209609
314497,-34.586824,-58.481711
314502,-34.622628,-58.457973
314893,-34.613674,-58.360227
315411,-34.595935,-58.432415
318954,-31.413342,-64.187547
319101,-34.602653,-58.455448
319208,-31.427867,-64.185927
319541,-32.944585,-60.672008
319624,-34.631686,-58.368141
319628,-34.649582,-58.387479
319707,-31.424585,-64.179840
319810,-31.423811,-64.189291
322055,-32.950748,-60.633588
325190,-32.953992,-60.641585
325192,-32.953947,-60.641570
325311,-34.643036,-58.566618
329117,-34.098365,-59.019732
329120,-34.163219,-58.962099
329122,-34.159279,-58.957845
329126,-34.571348,-59.086601
329142,-32.919394,-60.676226
333340,-34.649084,-58.622919
333343,-34.704398,-58.315689
333344,-34.700721,-58.316163
333367,-34.615179,-58.410677
333370,-32.495202,-58.228125
333372,-34.664097,-58.362364
333383,-34.774659,-58.326179
333405,-34.564914,-58.459328
333410,-23.210062,-64.100884
333953,-34.601111,-58.412332
333955,-34.590978,-58.386427
333958,-34.599363,-58.386134
333960,-34.526913,-58.491709
333961,-34.600301,-58.442364
333962,-34.576045,-58.488004
333963,-34.604540,-58.419642
333969,-34.462224,-58.508259
333970,-34.636317,-58.401732
333971,-34.596526,-58.385507
333976,-34.602322,-58.389585
333977,-34.563952,-58.455364
333978,-34.607753,-58.396274
333979,-34.560781,-58.478312
333982,-34.613503,-58.374705
333984,-34.616557,-58.370496
333985,-34.651945,-58.640187
333986,-34.602081,-58.374988
333987,-34.648004,-58.548471
333988,-34.684777,-58.398032
333989,-34.644226,-58.537679
333991,-34.479146,-58.506361
333994,-34.570652,-58.457942
333995,-34.572659,-58.444304
333997,-34.578136,-58.410660
333998,-34.555429,-58.459988
333999,-34.583351,-58.396070
334001,-34.577819,-58.462013
334003,-34.612855,-58.493389
334005,-34.613699,-58.435751
334006,-34.596526,-58.385507
334008,-34.589244,-58.409975
334010,-34.099034,-59.039850
334014,-34.569691,-58.419286
334016,-34.559684,-58.472337
334018,-34.595022,-58.408179
334019,-34.624459,-58.396732
334022,-34.624173,-58.412378
334023,-34.614770,-58.360717
334025,-34.601531,-58.379857
334028,-34.614449,-58.389481
334032,-34.579722,-58.433336
334033,-34.602214,-58.432648
334034,-34.564712,-58.469534
334035,-34.623620,-58.449281
334037,-34.645828,-58.407977
334038,-34.604383,-58.374691
334039,-34.632869,-58.396472
334040,-34.620085,-58.375725
334041,-34.579840,-58.500878
334043,-34.634932,-58.416129
334045,-34.797712,-58.389089
334046,-34.179316,-58.960668
334051,-34.619278,-58.518432
334055,-34.472150,-58.492532
334057,-34.755122,-58.282029
334059,-34.468347,-58.518360
334060,-34.825891,-58.390289
334061,-34.443821,-58.769362
334064,-34.586054,-58.501448
334066,-34.602665,-58.494159
334069,-34.792918,-58.383559
334070,-34.532791,-58.482309
334071,-34.395573,-58.650218
334073,-34.638799,-58.519378
334076,-34.893459,-58.018521
334078,-34.595092,-58.409285
334079,-34.477946,-58.535410
334080,-34.597971,-58.416361
334081,-34.532942,-58.479169
334083,-32.946802,-60.648297
334085,-32.956878,-60.634942
334087,-34.471876,-58.524464
334088,-32.957945,-60.632367
334090,-32.955006,-60.640318
334092,-34.599162,-58.364667
334093,-38.714694,-62.272943
334096,-34.595764,-58.378538
334097,-34.679912,-58.555528
334100,-34.723934,-58.249661
334101,-34.604289,-58.395564
334106,-34.632419,-58.527186
334107,-34.608929,-58.437233
334108,-34.600084,-58.511597
334109,-34.629100,-58.520276
334111,-34.619278,-58.518432
334117,-34.571651,-58.431910
334119,-34.663271,-58.367545
334120,-34.767244,-58.410224
334122,-31.428724,-64.159255
334123,-34.637928,-58.565485
334124,-32.418975,-63.248469
334125,-31.413851,-64.163209
334129,-34.625019,-58.687206
334146,-34.574035,-58.443712
334147,-34.559549,-58.462331
334151,-34.595795,-58.405165
334153,-34.904438,-57.954573
334155,-34.898070,-57.960720
334159,-34.385312,-58.748325
334165,-34.871454,-58.057438
334170,-34.921632,-57.958683
334172,-45.863063,-67.478105
334173,-34.873674,-58.503153
334177,-34.671079,-58.353644
334178,-34.663140,-58.363456
334179,-34.589406,-58.390607
334182,-33.038422,-68.888870
334186,-34.563991,-58.442116
334187,-34.597358,-58.486756
334188,-32.909575,-68.843214
334189,-32.905592,-68.849874
334191,-34.553879,-58.461104
334192,-32.892524,-68.853837
334193,-32.905333,-68.860372
334194,-32.899361,-68.838530
334195,-33.036999,-68.928531
334196,-32.904634,-68.858668
334201,-32.885612,-68.845032
334207,-34.525098,-58.513403
334208,-34.635989,-58.390039
334209,-32.876042,-68.844912
334210,-32.993644,-68.889555
334216,-31.521814,-68.542808
334217,-31.538617,-68.577837
334218,-31.511037,-68.550404
334220,-34.603030,-58.540324
334221,-34.555487,-58.447761
334224,-34.599627,-58.410737
334230,-34.599076,-58.416604
334232,-34.931557,-57.960766
334234,-34.534237,-58.523139
334242,-34.634794,-58.465367
334244,-34.615986,-58.360288
334246,-34.599822,-58.502439
334247,-34.587904,-58.479159
334248,-34.571141,-58.537688
334249,-34.528279,-58.492454
334250,-34.801496,-58.452075
334252,-34.710240,-58.385056
334253,-32.974380,-68.794936
334254,-34.529815,-58.495476
334258,-34.622987,-58.383040
334261,-34.587904,-58.479159
334266,-34.626035,-58.414537
334267,-34.634226,-58.482314
334270,-34.636569,-58.541102
334273,-34.606960,-58.393191
334274,-34.432117,-58.781325
334276,-34.766919,-58.644442
334279,-34.574784,-59.093905
334281,-33.185241,-66.312771
334282,-33.301640,-66.331001
334283,-34.627892,-58.400325
334284,-34.584731,-58.391741
334288,-34.518826,-58.472898
334305,-34.600444,-58.402494
334316,-32.890954,-68.862214
334322,-34.616863,-58.392401
334330,-34.616957,-58.438961
334339,-32.968930,-68.853849
334344,-32.960066,-68.790064
334353,-34.602422,-58.379922
334364,-34.602149,-58.429641
334383,-34.609141,-58.362869
334396,-32.945827,-68.848159
334437,-32.981239,-68.877009
334463,-34.811935,-58.280153
334484,-35.478822,-69.575578
334499,-32.974451,-68.875573
334517,-34.494131,-58.550208
334520,-32.898922,-68.831823
334521,-33.297688,-66.333469
334525,-34.695796,-58.328177
334528,-33.284148,-66.248080
334529,-34.507634,-58.497330
334530,-34.532904,-58.522786
334533,-34.591339,-58.421843
334535,-34.584388,-58.392789
334536,-34.536757,-58.472535
334537,-34.605488,-58.449196
334552,-32.929257,-68.858431
334553,-34.910819,-57.953092
334554,-34.606517,-58.375300
334555,-34.620892,-58.435453
334558,-34.641666,-58.564659
334564,-32.914800,-68.833912
334565,-34.565676,-59.114865
334569,-32.950189,-68.849284
334571,-32.887377,-68.858185
334572,-34.596936,-58.414303
334573,-34.624427,-58.458112
334576,-34.606707,-58.390040
334580,-37.853775,-58.251908
334582,-34.589058,-58.384228
334583,-34.104257,-59.023118
334584,-34.665393,-58.694614
334585,-34.638371,-58.374444
334586,-34.561225,-58.465252
334587,-34.609635,-58.396688
334588,-34.916642,-57.945829
335025,-31.415191,-64.188456
335032,-34.631434,-58.559990
335036,-34.613894,-58.459457
335037,-34.613680,-58.360236
335039,-34.093423,-59.024063
335041,-34.520243,-58.487789
335042,-34.572736,-58.401814
335043,-34.559120,-58.449390
335044,-33.745585,-61.964444
335045,-38.024932,-57.568124
335046,-34.637900,-58.562590
335223,-34.686995,-58.417333
335231,-32.910333,-68.846556
335243,-34.598251,-58.375314
335244,-34.696666,-58.502201
335245,-34.632391,-58.516495
335254,-37.314870,-59.146786
335257,-33.226862,-60.328394
335258,-34.707854,-58.394064
335261,-32.932169,-60.664088
335263,-32.890986,-68.863043
335268,-35.578760,-58.005858
335269,-34.635972,-58.446015
335285,-34.720655,-58.259684
335295,-34.605795,-58.952502
335297,-34.765911,-58.403608
335306,-36.890305,-60.323688
335310,-34.643883,-58.634217
335314,-34.098522,-59.025328
335316,-32.906918,-68.804335
335317,-34.626081,-58.389374
335323,-34.426996,-58.591225
335324,-33.128151,-64.358527
335334,-33.692186,-65.451207
335340,-34.598129,-58.414081
335349,-31.399569,-64.181601
335360,-34.500949,-58.691510
335362,-34.100666,-59.023891
335364,-34.606714,-58.375539
335369,-34.608170,-58.362979
335374,-37.338517,-59.131363
335376,-34.592585,-58.441436
335381,-34.784494,-58.842730
335386,-38.963120,-68.087303
335387,-32.934244,-68.849990
335393,-43.257077,-65.301795
335394,-32.901011,-68.840489
335410,-38.952220,-68.060061
335413,-26.812115,-65.301688
335414,-26.822482,-65.207253
335415,-34.608066,-58.395201
335446,-32.889892,-68.861895
335453,-32.876853,-68.843073
335464,-31.422814,-64.182298
335474,-34.818639,-58.351135
335482,-34.943470,-57.951705
335483,-34.915731,-57.951858
335484,-32.938246,-60.643762
335485,-34.891007,-58.012560
335486,-34.598700,-58.388037
335487,-34.591663,-60.938616
335491,-36.019631,-59.102952
335493,-38.003875,-57.558191
335494,-32.487001,-58.237856
335575,-34.761108,-58.275593
336212,-31.635740,-60.715439
336214,-34.602708,-58.432056
336215,-34.623240,-58.435079
336339,-34.428784,-58.580613
336360,-34.561568,-58.503872
336362,-32.953364,-60.626512
336364,-34.564065,-58.457358
336365,-34.598687,-58.402888
336366,-34.559229,-58.458562
336368,-34.766858,-58.404233
336369,-34.602268,-58.431470
336370,-34.652244,-58.651675
336371,-34.623427,-58.696215
336372,-34.523351,-58.470695
336440,-32.907827,-68.790448
336441,-32.914407,-68.821955
336442,-34.391237,-58.714479
337283,-34.800464,-58.376624
337318,-34.620631,-58.460715
337947,-34.535124,-58.477156
337948,-34.589029,-58.413962
337952,-34.571175,-58.477903
337955,-34.486389,-58.518139
337956,-32.907436,-68.793186
337960,-41.133931,-71.315268
337962,-33.032197,-68.878277
337979,-34.550819,-58.479816
337990,-38.269304,-57.838568
337998,-34.674843,-58.724692
338003,-34.647703,-58.564068
338010,-34.531055,-58.462179
338011,-34.597469,-58.400601
338013,-34.614129,-58.378781
338014,-34.612761,-58.434715
338015,-34.638131,-58.578134
338019,-32.956003,-60.624604
338167,-32.892590,-68.853990
338168,-34.528918,-58.522838
338171,-32.966869,-68.876003
338604,-34.868418,-61.534848
338606,-34.638014,-58.417175
338607,-34.818777,-58.382252
338608,-31.535411,-68.526594
338611,-34.600008,-58.374140
338612,-34.708348,-58.523304
338664,-32.993770,-68.677691
338666,-34.760798,-58.342495
338752,-34.551268,-58.437601
338851,-34.610955,-58.392014
338924,-32.966045,-68.791646
339345,-34.569620,-58.417099
339689,-34.552785,-58.481762
339691,-43.257773,-65.313200
339693,-34.587704,-58.405982
339694,-35.569955,-58.015665
339700,-33.036617,-68.883092
339706,-34.559645,-58.681176
339707,-35.976029,-62.739118
339709,-34.468371,-58.624237
339712,-34.710611,-58.283892
339714,-32.429179,-63.257474
339715,-34.906290,-60.015667
339716,-27.444755,-58.974415
339718,-35.574431,-58.010616
339720,-31.253078,-61.495183
339721,-34.661682,-58.510913
339725,-34.864685,-57.913325
339729,-34.618109,-58.375926
339731,-31.245878,-61.474507
339739,-34.598048,-58.422922
339741,-24.769541,-65.392680
339743,-38.017032,-57.543532
339744,-31.632737,-60.700162
339748,-31.409208,-64.194275
339749,-34.922823,-57.947584
339750,-34.804261,-58.448217
339753,-37.850029,-58.253327
339755,-34.581837,-58.423118
339756,-34.637449,-58.408319
339757,-31.647201,-60.700249
339758,-31.407996,-64.476674
339759,-34.574534,-58.418452
339766,-35.576995,-58.009527
339770,-34.879936,-58.052376
339771,-34.537142,-58.719247
339779,-34.645203,-58.592296
339790,-34.552987,-58.464694
339795,-34.549623,-58.467285
339803,-38.379497,-60.278887
339806,-31.529805,-68.551800
339814,-38.959803,-68.053361
339815,-38.828628,-68.124018
339816,-32.619388,-60.153908
339818,-34.427163,-58.591371
339819,-34.572755,-58.446285
339820,-34.726459,-58.260908
339821,-33.143442,-59.314334
339822,-38.379650,-60.273561
339823,-34.910617,-57.960175
339827,-34.420968,-58.584630
339828,-29.396771,-66.840123
339829,-34.598272,-58.375169
339832,-36.315310,-57.677057
339833,-27.471022,-58.817714
339859,-34.607835,-58.961485
339924,-33.294950,-66.338120
340267,-27.468580,-58.824326
340268,-27.467167,-58.840844
341571,-32.914958,-68.824076
341573,-34.632869,-58.396472
341578,-34.600100,-58.401151
341580,-34.564998,-58.459075
345287,-43.255466,-65.303740
351789,-34.564403,-58.439330
351877,-34.557666,-58.448610
351917,-34.868198,-61.526033
352012,-34.599325,-58.401324
352033,-34.551561,-58.436822
352043,-32.891963,-68.850076
352674,-34.759604,-58.409299
352675,-34.602512,-58.491364
352764,-34.604094,-58.557985
352766,-34.597346,-58.375503
352770,-34.610571,-58.466604
352775,-34.650417,-58.645410
352789,-26.819552,-65.201697
352790,-31.422069,-64.494579
352855,-34.643437,-58.564742
352881,-31.399923,-58.016225
352886,-32.926769,-60.740016
352888,-32.951594,-60.643746
352889,-32.942296,-60.657084
352896,-34.740937,-58.235029
352902,-34.415996,-58.699618
352905,-34.652093,-58.627609
352906,-34.951764,-57.971259
352907,-34.688296,-58.317275
352914,-34.642842,-60.473128
352915,-34.646649,-58.592457
352916,-34.524629,-58.482551
352922,-32.072550,-60.459276
352924,-26.803298,-65.291395
352925,-43.261134,-65.295166
352928,-36.776803,-59.857081
352929,-34.347222,-58.796460
352930,-24.814237,-65.411554
352931,-34.552313,-58.481094
352932,-34.895368,-58.059478
352934,-34.408008,-58.770390
352935,-31.644095,-60.705008
352937,-36.018704,-60.010722
352938,-34.611076,-58.461008
352939,-35.441317,-58.810058
352941,-31.721982,-60.521470
352943,-34.920363,-57.972255
353517,-34.585320,-58.413870
353526,-34.425413,-58.583103
353538,-34.602703,-58.436308
353551,-33.085089,-68.470322
354152,-34.720601,-58.272697
354172,-34.514192,-58.511522
354177,-40.806757,-62.993669
354257,-34.637912,-58.798482
354264,-34.627821,-58.426735
354271,-34.524672,-58.468196
354279,-34.912861,-57.947386
354290,-34.609739,-58.461377
354322,-39.299230,-65.656563
354450,-34.628830,-58.461686
354451,-34.718558,-58.256606
354655,-31.411999,-64.483492
354682,-34.624158,-58.402843
354687,-34.481284,-58.528340
355401,-34.612048,-58.398858
355407,-43.250215,-65.312029
355415,-38.950448,-68.084352
355440,-34.651754,-58.572415
355498,-34.546515,-58.702633
355509,-34.536322,-58.742197
355679,-43.304090,-65.098240
355719,-34.555065,-58.538674
355938,-34.575638,-59.116669
355941,-34.592218,-59.177483
355942,-34.612386,-58.391132
356087,-33.307820,-66.342342
356089,-34.674058,-58.721284
356095,-33.151150,-66.305837
356343,-31.634437,-60.701568
356527,-34.550665,-58.699575
356529,-33.681048,-65.467150
356536,-33.685165,-65.464846
356544,-34.098270,-59.027657
356569,-34.613506,-58.458512
356574,-34.569835,-58.445222
356763,-34.702830,-58.323256
356778,-29.148600,-59.646891
356890,-34.823465,-58.388992
356905,-38.864683,-62.082013
356914,-38.950727,-68.237742
356922,-24.840864,-65.456503
357031,-34.593683,-58.414999
357452,-34.509553,-58.523430
357498,-34.650106,-58.643479
357506,-34.700594,-58.310666
357540,-27.449221,-58.991446
357559,-40.819015,-62.985580
357628,-31.412927,-64.484262
357886,-33.007246,-68.646215
357887,-31.410602,-64.193614
357888,-34.512658,-58.495459
357889,-34.530852,-58.508944
357945,-34.752153,-58.343140
357992,-34.913966,-57.967317
358017,-24.762711,-65.404801
358076,-34.442709,-58.874519
358164,-51.625822,-69.209436
358165,-34.573893,-58.480943
358386,-43.256561,-65.301950
358391,-33.010292,-58.520751
358407,-37.995816,-57.560540
358423,-34.673353,-58.405391
358433,-35.985101,-62.726375
358458,-31.391725,-58.015125
358464,-38.878264,-62.076299
358467,-34.621683,-68.349943
358521,-37.332359,-59.131274
358570,-34.682417,-58.728312
358586,-34.746441,-58.388077
358596,-34.925507,-57.961272
358625,-34.585324,-58.480005
358719,-34.601413,-58.440901
358727,-34.581304,-58.499519
358985,-32.909901,-68.861980
358994,-32.894163,-68.787987
359002,-32.992174,-68.684961
359006,-32.905056,-68.767893
359013,-38.940336,-67.991232
359015,-32.886501,-68.835364
359018,-38.939165,-67.999066
359021,-38.938561,-67.981766
359023,-32.852157,-68.849923
359024,-38.937589,-67.993661
359026,-32.932506,-68.730405
359031,-32.927566,-68.734948
359033,-35.466381,-69.588480
359036,-32.899534,-68.856420
359048,-32.951585,-68.800788
359051,-32.908940,-68.764281
359053,-32.850235,-68.841599
359415,-34.649675,-58.616401
359429,-38.904976,-70.062209
359687,-34.705736,-58.504224
359729,-31.253874,-61.493360
359865,-34.782451,-58.400985
359886,-36.885806,-60.322347
360309,-34.552059,-58.495167
360344,-40.821828,-62.988237
360422,-38.920798,-67.997662
360667,-30.614756,-57.973932
360671,-34.597818,-58.378490
360763,-32.930237,-68.841451
360779,-34.613393,-58.458231
360780,-34.861261,-58.390106
360784,-34.525641,-58.522966
361083,-34.549398,-58.474889
361121,-32.976405,-68.854471
361124,-27.372898,-55.917416
361478,-34.604235,-58.494913
361521,-34.600718,-58.544477
361549,-34.828140,-58.396809
361565,-34.592158,-58.427524
361609,-34.635305,-58.469176
361612,-34.590289,-58.427600
361628,-34.578184,-58.477573
361635,-34.456289,-58.546624
362031,-34.583070,-58.445015
362032,-34.623240,-58.435079
362086,-38.561387,-58.748068
362189,-31.640380,-60.711477
362531,-24.791424,-65.403985
362545,-27.381244,-55.899645
362547,-38.719979,-62.260804
362550,-34.890667,-58.009549
362556,-34.512721,-58.489877
362558,-32.889794,-62.680476
362559,-34.446783,-58.675604
362582,-34.607156,-68.355453
362595,-31.262801,-61.490296
362607,-31.366805,-64.218752
362651,-34.687734,-58.395975
362663,-34.543445,-58.705659
362852,-34.531548,-58.575397
362871,-37.336149,-59.125409
362962,-34.799183,-58.408155
362965,-34.656619,-58.672205
363075,-32.896588,-68.840034
363084,-32.917140,-68.843149
363094,-34.653792,-58.550852
363097,-34.596990,-58.394665
363102,-34.637033,-58.411188
363483,-34.539037,-58.701017
363504,-34.620781,-58.369150
363768,-34.540383,-58.710971
363771,-24.762835,-65.401149
363785,-40.797918,-62.981242
363788,-34.705751,-58.396321
363801,-34.762505,-58.403188
363802,-34.858425,-58.502831
364013,-38.689150,-62.232901
364023,-34.592804,-58.379024
365156,-34.658797,-58.666225
365161,-34.413248,-58.773575
365170,-36.618141,-64.280093
365182,-34.664425,-58.357987
365468,-28.466794,-65.776444
365574,-24.186283,-65.304156
365828,-36.628056,-64.272011
365873,-37.977923,-57.573964
365876,-37.970450,-57.544384
365878,-38.031404,-57.555192
366255,-30.791632,-60.590798
366275,-27.439477,-58.973782
366552,-34.798344,-58.391083
366879,-34.593093,-60.951575
366894,-35.565921,-58.016396
367054,-32.419922,-63.232388
367100,-27.370807,-55.900405
367113,-34.622645,-58.460189
367129,-32.414765,-63.232186
367381,-34.660328,-58.365704
367382,-32.412549,-63.237280
367388,-34.564327,-58.441489
367409,-54.807174,-68.310849
367411,-40.813177,-63.001239
367549,-38.941274,-67.969990
367553,-34.722803,-58.276761
367554,-27.397348,-55.904776
367555,-32.748704,-60.737324
367557,-34.581720,-58.395866
367558,-34.564239,-58.503017
367560,-34.570183,-58.410687
367572,-34.442179,-58.873883
367573,-34.600994,-58.948742
367575,-38.881611,-62.078992
367817,-43.254778,-65.307455
367820,-43.253870,-65.312209
367821,-43.259434,-65.308530
367825,-34.100762,-59.038048
368082,-32.414741,-63.231541
368106,-28.467770,-65.774630
368108,-28.464714,-65.801362
368197,-34.420443,-58.728940
368235,-42.771037,-65.045058
368243,-34.407406,-58.618922
368245,-34.932775,-57.969528
368251,-26.823157,-65.232374
368254,-34.626890,-58.704507
368269,-34.163837,-58.966238
368284,-34.598986,-58.433339
368286,-34.626775,-58.424341
368538,-32.411935,-63.242876
368541,-39.030047,-67.570919
368542,-34.833724,-58.184216
368544,-31.392198,-58.029768
368590,-34.861561,-58.500160
368595,-31.386865,-58.018661
368631,-27.451505,-58.980712
368674,-31.546186,-68.517504
368699,-27.441083,-58.990803
368820,-34.163908,-58.962265
368822,-34.104619,-59.018044
368823,-24.733535,-65.407802
368824,-38.382504,-60.274381
368879,-27.447569,-58.996306
368910,-32.420194,-63.265776
368936,-34.585093,-58.488659
368942,-24.778457,-65.411878
369264,-38.831037,-68.121906
369446,-34.649682,-58.563827
369457,-31.377450,-64.202489
369535,-34.532282,-58.521801
369540,-32.989869,-68.784638
369542,-32.960700,-68.853322
369580,-47.752070,-65.902205
369591,-34.524672,-58.468196
369686,-32.412628,-63.255690
369692,-38.897539,-70.078139
369694,-38.909814,-70.064008
369698,-35.171093,-58.229895
369700,-34.165701,-58.952683
369701,-27.443042,-58.984227
369702,-36.628697,-64.305034
369730,-33.293908,-66.339859
369751,-34.468840,-58.650922
369752,-38.935737,-67.993483
369763,-32.944105,-60.638096
369892,-27.449714,-58.974378
369898,-27.439498,-59.013882
370094,-34.559292,-58.670851
370162,-31.257139,-61.481198
370797,-34.891012,-57.950405
370806,-24.182794,-65.308642
370814,-24.195910,-65.293944
370818,-34.690356,-58.402523
370823,-26.406668,-54.630588
371630,-31.348716,-64.257632
374790,-34.861612,-57.903307
377943,-26.836266,-65.213755
378192,-34.549334,-58.474867
378194,-34.715557,-58.273930
378265,-33.349728,-60.206955
378275,-31.255731,-61.474819
378277,-34.722802,-58.251649
378284,-34.558285,-58.447740
378341,-34.565216,-59.113487
378360,-31.412494,-64.484290
378367,-51.625684,-69.226443
378435,-34.601762,-58.444586
378442,-34.755500,-58.214013
378443,-53.787838,-67.698407
378444,-45.870363,-67.495622
378448,-32.886914,-68.853542
378449,-37.329146,-59.114906
378450,-34.539848,-58.489414
378451,-34.538920,-58.484188
378455,-34.635098,-58.425138
378984,-26.838444,-65.203757
378987,-34.556221,-58.460333
378999,-38.951278,-68.126065
379136,-34.614529,-58.360736
379147,-24.776897,-65.406834
379155,-34.610405,-58.390186
379177,-33.343041,-60.225245
379179,-37.334539,-59.130952
379205,-31.355800,-64.310443
379269,-26.808906,-65.286403
379319,-54.801414,-68.318035
379365,-26.174916,-58.194351
379393,-31.442304,-64.503268
379404,-34.582795,-58.423825
379416,-34.562428,-58.446582
379420,-34.605752,-58.379250
379529,-31.244326,-61.483765
379536,-31.251421,-61.501333
379601,-37.992724,-57.544662
379758,-34.693601,-58.708024
379970,-34.612459,-58.468623
380067,-34.627758,-58.521493
380093,-34.560247,-58.462274
380094,-34.589403,-58.390612
380106,-34.633809,-58.862506
380108,-34.595372,-58.415329
380214,-34.631325,-58.525197
380372,-34.764295,-58.399858
380527,-34.825396,-58.485080
380634,-34.561456,-58.463178
381189,-34.596148,-58.422909
381190,-34.589223,-58.424068
381370,-34.570246,-58.417904
381622,-40.813296,-62.992912
381624,-34.577885,-58.412476
381733,-38.953367,-68.117740
381744,-38.961999,-68.067630
381952,-53.782607,-67.718911
382249,-34.921259,-57.924838
382250,-41.132801,-71.319240
382252,-34.899231,-57.970593
382259,-34.618625,-58.359546
382342,-51.624770,-69.250822
382345,-34.674431,-58.479777
382379,-34.870868,-57.867927
382387,-38.707136,-62.274554
382419,-38.027524,-57.542724
382422,-38.026139,-57.530366
382424,-38.016558,-57.577644
382526,-34.628517,-58.520265
382574,-33.010147,-58.511037
382576,-33.015575,-58.503723
382590,-27.783357,-64.264167
382593,-34.542770,-58.513250
382971,-34.542548,-58.706446
382977,-40.043117,-70.069880
382991,-31.388618,-64.225941
382998,-31.384940,-64.269273
383002,-34.582855,-58.393451
383005,-31.848289,-59.027224
383062,-31.427097,-64.186820
383067,-34.602623,-58.538261
383083,-34.513558,-58.496989
383085,-34.162503,-58.956884
383100,-32.902250,-68.854418
383106,-32.174154,-64.108675
383108,-34.676447,-58.403016
383118,-31.745620,-60.513520
383121,-34.586407,-58.609420
383140,-34.609178,-58.376194
383200,-34.928377,-57.933002
383205,-34.703059,-58.391681
383207,-34.614082,-58.393673
383239,-33.893515,-60.549437
383250,-34.165182,-58.956981
383251,-45.836787,-67.481884
383306,-34.894708,-57.989704
383317,-35.765275,-58.502034
383321,-27.369443,-55.896665
383328,-34.569047,-58.418150
383333,-40.157790,-71.353590
383334,-38.941835,-68.114327
383335,-27.482232,-58.935502
383568,-34.599447,-58.393315
383583,-34.580982,-58.422179
383761,-53.761836,-67.723804
383882,-34.446680,-58.546950
383887,-34.582772,-58.421748
383889,-34.584741,-58.453930
383891,-34.580181,-58.423686
383892,-34.497679,-58.488642
383893,-34.542431,-58.459626
383941,-32.407840,-63.249798
383953,-34.665396,-58.548769
383955,-31.416910,-64.181713
383956,-31.422937,-64.182738
383996,-35.771155,-58.492257
384112,-34.495404,-58.557778
384117,-31.047729,-64.488166
384118,-31.083270,-64.492197
384617,-34.759839,-58.213592
384622,-34.586340,-58.588374
384627,-31.644582,-60.708995
384628,-31.648368,-60.706141
384629,-31.627327,-60.767889
384631,-31.633271,-60.714691
384632,-31.649115,-60.712589
384633,-31.662037,-60.712509
384660,-34.647109,-58.783806
384668,-34.599881,-58.513344
384718,-34.600778,-58.532214
384719,-31.412602,-64.169520
384773,-34.890121,-58.035581
384782,-26.720725,-65.261880
385026,-34.449283,-58.907205
385095,-34.580505,-58.424843
385122,-34.707518,-58.398730
385134,-34.584499,-58.445064
385312,-34.632174,-58.428240
385370,-36.625020,-64.296992
385377,-34.666076,-58.547780
385392,-33.030279,-68.877797
385414,-34.771278,-58.227551
385419,-34.097818,-59.019635
385445,-31.413136,-64.193965
385446,-34.420545,-58.732595
385449,-34.453434,-58.647143
385500,-34.661075,-58.511611
385548,-24.796142,-65.410679
385556,-34.911498,-57.965463
385643,-32.914560,-68.772926
385655,-34.628295,-58.452612
385656,-34.630680,-58.450538
385657,-34.597495,-58.388317
385681,-34.658359,-58.660524
385697,-34.520804,-58.542161
385710,-32.982833,-68.783909
385752,-34.459829,-58.635459
385756,-38.937108,-69.204559
385760,-32.891503,-68.851451
385790,-38.371162,-60.277536
385950,-34.694023,-58.497911
386009,-31.347409,-64.262254
386010,-34.382547,-58.746820
386078,-32.488000,-58.225924
386079,-32.984378,-68.879956
386124,-34.553974,-58.479275
386613,-34.450407,-58.542681
386620,-34.638131,-58.578134
386646,-24.789510,-65.414306
386649,-24.785096,-65.423496
386652,-24.760732,-65.397928
386834,-34.043146,-59.196399
386850,-34.562457,-58.608996
386852,-34.600232,-58.413972
386868,-32.943987,-60.674281
386901,-37.262519,-56.970858
386994,-32.172892,-64.129690
387030,-34.654273,-59.436373
387042,-34.645505,-59.440869
387045,-34.649696,-59.427882
387119,-29.416553,-66.858771
387121,-34.671828,-59.427898
387158,-31.652594,-64.428037
387160,-34.667054,-58.706600
387164,-32.922981,-68.830384
387496,-34.542431,-58.459626
387654,-34.572788,-59.113906
387655,-34.562057,-59.105610
387659,-31.409621,-64.183080
387661,-26.809852,-65.312408
387666,-31.656452,-64.428878
387669,-31.629569,-60.707942
387674,-31.450089,-64.185858
387677,-31.637584,-60.700214
387691,-34.612072,-58.421273
387695,-32.925104,-60.677989
387696,-32.961283,-68.784492
387697,-32.947857,-60.637893
387699,-32.962279,-60.643686
387754,-34.581344,-58.431674
387770,-34.725466,-58.369778
387773,-34.579562,-58.411874
387812,-34.642076,-58.413176
387886,-32.940539,-60.639509
387901,-31.359511,-64.235433
387910,-31.406760,-64.198403
387911,-34.571944,-58.432501
387978,-31.421046,-64.181831
387985,-33.109130,-64.338952
387992,-31.450032,-64.176837
388003,-34.604963,-58.387964
388578,-33.680051,-65.469556
388593,-30.983425,-64.496257
388599,-31.413608,-64.181634
388694,-31.419951,-64.491042
388696,-31.351534,-64.338404
388702,-31.389736,-64.176853
388741,-34.540367,-58.550832
388789,-34.879228,-57.880502
388792,-31.372117,-64.296848
388814,-31.683855,-63.875138
388916,-29.167189,-67.497000
388944,-34.459257,-58.502072
388949,-34.639496,-58.561390
388952,-27.484203,-58.799340
388954,-38.946414,-68.049150
388969,-42.766410,-65.038160
388973,-34.583632,-58.498442
388976,-36.887117,-60.335986
388978,-38.940014,-67.994959
388987,-34.652148,-59.425544
388988,-38.925951,-68.054834
388997,-38.932355,-69.227456
388998,-31.606366,-60.688936
389036,-32.405443,-63.229610
389049,-34.605718,-58.426178
389055,-31.776544,-60.519803
389165,-32.170625,-64.109576
389189,-31.436294,-64.178881
389232,-31.429976,-64.180465
389234,-31.448977,-64.506726
389237,-37.320647,-59.150452
389265,-34.160349,-58.962433
389272,-28.469512,-65.797659
389275,-30.980244,-64.099054
389277,-26.824875,-65.232478
389294,-34.623977,-58.427285
389339,-31.630859,-60.694870
389836,-26.838812,-65.207767
389849,-31.759164,-60.527570
389851,-31.739025,-60.520948
389853,-31.760596,-60.527776
389857,-32.959937,-60.650318
389874,-31.409752,-64.173023
389877,-31.364761,-64.201527
389879,-33.130468,-64.364982
389880,-34.561592,-58.448723
390058,-31.643571,-60.708246
390059,-31.173701,-64.313205
390060,-24.380471,-65.117598
390061,-26.839626,-65.205088
390064,-31.456319,-64.221461
390066,-37.321874,-59.140209
390251,-31.547606,-68.611656
390296,-42.768831,-65.036171
390418,-38.705704,-62.283840
390857,-38.951306,-68.062012
390866,-34.664200,-58.721548
390872,-34.616975,-58.501337
390888,-38.932732,-69.215731
390893,-31.252200,-61.479489
390898,-31.657825,-64.422689
390912,-33.119720,-64.347824
390920,-31.417248,-64.166154
390980,-34.675644,-58.688287
390983,-31.407492,-64.199217
390998,-31.381073,-64.213345
391172,-38.836253,-68.127473
391320,-34.446264,-58.868823
391322,-34.498172,-58.701286
391323,-34.473419,-58.492306
391329,-31.719153,-60.526158
391331,-34.915508,-57.934959
391340,-34.918438,-57.950117
391649,-31.538021,-68.549891
391656,-29.435683,-66.870955
391689,-29.421834,-66.850321
391888,-31.379811,-64.213972
392219,-31.423651,-64.176536
392220,-34.634537,-58.411722
392223,-32.908522,-68.778764
392224,-31.294520,-64.296207
392402,-37.317785,-59.137429
392439,-34.570262,-59.116669
392457,-27.472221,-58.846409
392811,-34.615841,-58.393007
393229,-31.420083,-64.188776
393233,-31.453826,-64.171912
393234,-37.330252,-59.132715
393254,-37.330252,-59.132715
393277,-41.959672,-71.536782
393282,-31.359680,-64.249493
393402,-33.666786,-65.468720
393403,-34.510321,-58.490581
393424,-33.120288,-64.349124
393494,-30.983984,-64.092228
393694,-31.269240,-64.301911
393702,-31.453356,-64.213639
393707,-34.893733,-57.969878
393730,-39.041534,-67.590955
393731,-34.568529,-59.094039
393737,-34.558336,-58.447734
393738,-31.431896,-64.192189
393741,-31.428296,-64.190119
393744,-34.625376,-58.428178
393780,-32.447065,-64.384321
393800,-32.913698,-60.813021
393804,-34.245248,-59.473819
393812,-32.947131,-60.674076
393897,-31.646860,-60.720508
393914,-34.552775,-58.451284
393922,-34.528760,-58.551905
393974,-31.446775,-64.162616
393975,-34.604062,-58.943599
394447,-34.258651,-59.479533
394456,-34.557639,-58.456070
394464,-36.914897,-60.318982
394481,-34.613951,-58.484934
394487,-34.631552,-58.560142
394533,-37.319433,-59.138908
394547,-34.343757,-58.790600
394583,-34.926437,-57.981785
394665,-34.429349,-58.795873
394828,-34.542160,-58.509428
394841,-34.671980,-58.724136
394842,-38.003327,-57.548487
394863,-38.051613,-57.604245
394910,-35.983320,-62.733025
394985,-34.559492,-59.111859
394994,-34.099271,-59.025431
394996,-34.451968,-58.855360
395003,-34.568141,-59.113339
395011,-34.635183,-58.572481
395012,-38.938452,-68.001800
395013,-34.552310,-58.465905
395018,-34.552846,-58.697328
395024,-32.895549,-60.685024
395108,-27.785338,-64.257268
395109,-27.780904,-64.266321
395110,-27.790470,-64.251084
395118,-31.448186,-64.163361
395133,-34.570869,-58.421904
395211,-34.604729,-58.507544
395231,-34.616224,-58.514021
395454,-30.983813,-57.921490
395461,-34.615604,-58.436788
395462,-26.822622,-65.228909
395463,-38.051338,-57.561002
395464,-34.605056,-58.433869
395468,-26.832687,-65.303438
395725,-34.537750,-58.466655
395938,-34.589935,-58.628189
395939,-36.406034,-56.943783
396003,-34.609269,-58.955785
396293,-34.599318,-58.512359
396300,-34.525050,-58.468136
396303,-34.572051,-58.413736
396378,-27.783700,-64.255606
396379,-27.785061,-64.246557
396380,-34.549243,-58.564177
396422,-34.560136,-58.453699
396428,-34.582974,-58.398705
396487,-34.588732,-58.410328
396621,-34.609593,-58.955182
396629,-31.384065,-58.019937
396682,-34.569047,-58.418150
396683,-34.605052,-58.433188
397361,-34.659841,-58.726065
397365,-34.822016,-58.469077
397371,-34.636362,-58.576555
397373,-24.774901,-65.410350
397386,-34.701758,-58.391643
397396,-34.574833,-58.537928
397397,-34.570504,-58.539014
397459,-43.260435,-65.291336
397467,-38.956307,-68.241993
397533,-34.599944,-58.513083
398505,-34.704564,-58.288419
398729,-38.933285,-69.225421
398730,-38.033162,-57.546813
399090,-31.736639,-60.494210
399091,-31.719911,-60.522073
399094,-34.568897,-59.104653
399280,-33.223353,-60.330424
399328,-34.857916,-57.913927
399338,-34.500271,-58.531753
400083,-34.631157,-58.442416
400207,-38.266546,-57.845172
400295,-34.589659,-60.945717
400300,-46.539902,-68.930456
400308,-32.921291,-68.795327
400316,-27.343416,-65.593020
400322,-34.565946,-59.099163
400323,-34.720277,-58.255737
400329,-38.561593,-58.730322
400333,-38.951070,-68.091921
400334,-31.636268,-60.702588
400337,-38.712844,-62.268449
400348,-27.808467,-64.251100
400682,-34.621940,-58.529432
400711,-34.606949,-58.392244
400822,-36.618820,-64.280500
400854,-29.154184,-59.648957
400862,-31.978898,-64.556233
400886,-34.613208,-58.951276
400893,-34.453449,-58.526705
400896,-40.154373,-71.350104
401206,-34.558336,-58.447734
401295,-34.553458,-58.435598
401303,-34.605804,-58.952505
401317,-34.607880,-58.631331
401322,-31.298840,-64.289025
403331,-34.552039,-58.479569
403686,-34.617939,-58.361750
403977,-34.650139,-58.624062
404143,-37.884525,-67.794758
404144,-34.568127,-59.103657
404146,-36.606164,-64.283488
404156,-34.749777,-58.583586
404165,-26.800443,-60.431235
404167,-26.796355,-65.210021
404168,-34.650254,-58.582789
404172,-34.490951,-58.524179
404173,-33.756341,-61.971049
404176,-32.937762,-60.639564
404177,-34.605674,-58.396754
404185,-34.580710,-58.436754
404196,-34.994351,-58.047231
404208,-34.583317,-58.748831
404212,-25.289853,-57.729769
404216,-34.613356,-68.343975
404222,-27.492279,-58.819352
404231,-32.925031,-60.677418
404259,-34.627717,-58.435905
404908,-32.949811,-60.634040
404916,-32.955229,-60.641749
405128,-29.413686,-66.848433
405447,-34.640288,-58.404942
405494,-46.439779,-67.518736
405527,-38.009544,-57.537734
405546,-34.639659,-58.541639
405567,-34.566099,-59.119929
405573,-33.304304,-66.321427
405577,-34.590780,-58.581366
405580,-34.711085,-58.392479
405588,-34.643920,-58.371420
405596,-34.668430,-58.413153
405601,-35.579847,-58.009882
405604,-31.264989,-61.485751
405637,-32.867392,-68.826910
405647,-34.710950,-58.388941
406529,-27.797635,-64.270587
406530,-38.016293,-57.543801
406531,-34.922073,-57.942177
406546,-34.889937,-60.021044
406548,-34.169399,-58.953354
406842,-31.648700,-60.719619
407574,-34.636424,-58.444006
407579,-34.802188,-58.450242
407625,-33.031597,-68.879142
407646,-31.731412,-60.518099
407658,-34.541072,-58.455520
408278,-38.933322,-69.233438
408286,-53.768089,-67.716083
408372,-32.170791,-59.397378
408386,-53.769608,-67.716368
408398,-34.894358,-60.008722
408440,-34.519602,-58.472281
408442,-34.559723,-58.448649
408472,-24.785080,-65.411079
408559,-24.845367,-65.451441
409108,-34.559644,-58.433109
409110,-34.594095,-58.376940
409398,-34.420485,-58.593790
409405,-34.926313,-57.961614
409411,-24.200222,-65.282406
409414,-32.904020,-68.787744
409424,-26.821939,-65.246088
409486,-31.421765,-63.050607
409653,-31.424066,-63.051912
409655,-32.961160,-68.813791
409739,-34.432746,-58.964755
409865,-34.587398,-60.951922
410236,-32.423692,-63.244541
410623,-34.570419,-58.451813
411014,-26.839995,-65.237107
411017,-34.667896,-58.614402
411147,-34.605868,-58.432919
411232,-31.385695,-64.133996
411277,-31.404664,-64.188030
411582,-34.549850,-58.467038
411634,-38.558523,-58.732518
411718,-38.005874,-57.565574
411728,-34.529165,-58.516628
411729,-34.638987,-58.517381
411740,-34.652694,-58.796192
411741,-33.084505,-68.465318
411743,-33.010888,-58.512862
411754,-27.487713,-55.117456
411756,-34.694271,-58.332258
411767,-32.937869,-68.843869
411768,-34.570563,-59.097280
411769,-36.617380,-64.291126
411774,-33.230169,-60.326617
411800,-34.615952,-58.404794
411806,-36.588867,-64.285157
411822,-35.036150,-63.011324
411941,-34.649114,-59.429933
412340,-34.647099,-59.416001
412430,-34.665216,-59.399949
412453,-32.480228,-58.238120
412805,-34.599899,-58.363889
412807,-34.529953,-58.465604
412856,-34.614443,-58.427439
412916,-26.821067,-65.202555
412918,-38.952487,-68.061994
413192,-34.622933,-58.416059
413695,-26.822657,-65.211100
413960,-26.821464,-65.197917
413961,-34.515747,-58.473866
414060,-38.011865,-57.538373
414081,-34.552108,-58.480781
414138,-34.584081,-58.394080
414167,-34.628060,-58.462816
414398,-34.904528,-57.976099
414428,-34.901239,-58.009401
414517,-34.527655,-58.550627
414527,-34.587724,-58.626242
414533,-34.573592,-58.644668
414535,-34.550946,-58.477258
414536,-34.508941,-58.486374
414537,-34.483512,-58.512481
414628,-34.758426,-58.213429
415736,-34.579532,-58.535756
415746,-34.719649,-58.389532
415756,-34.455061,-58.561769
415757,-34.609622,-58.961192
415767,-34.567837,-58.435131
415782,-34.707567,-58.609026
415783,-39.095577,-67.089004
415887,-34.602635,-58.430404
416128,-34.519401,-58.747423
416131,-34.578568,-58.640519
416215,-34.824751,-58.394830
416219,-32.867749,-68.833507
416221,-34.812256,-58.189086
416224,-24.777715,-65.416504
416231,-32.928877,-68.726197
416234,-34.552114,-58.675986
416263,-34.392638,-58.738632
416264,-34.791815,-58.378727
416278,-26.814285,-65.287031
416312,-31.749507,-60.503872
416316,-34.739053,-58.375099
416319,-34.613196,-58.951286
416332,-38.000913,-57.581870
416336,-32.874924,-68.837040
416340,-34.851200,-58.523162
416355,-32.933304,-68.856613
416372,-34.472290,-58.762180
416383,-34.803212,-58.340922
416458,-34.737420,-58.260338
416462,-34.694722,-58.328951
416465,-34.628306,-58.369302
416467,-34.617933,-58.361702
416470,-34.610626,-58.359434
416473,-34.605500,-58.361248
416492,-34.628280,-58.390910
416524,-31.418302,-63.045738
416750,-31.632702,-60.703254
416751,-31.398152,-64.163282
416753,-31.164275,-64.321191
416755,-41.142437,-71.307637
416760,-34.631594,-58.469135
416763,-34.585687,-58.403958
416775,-34.681456,-58.616895
417282,-34.692278,-58.632779
417320,-34.586912,-58.428656
417355,-32.908727,-68.851492
417356,-32.868749,-68.847697
419494,-34.908590,-57.959014
419499,-34.883235,-58.021220
419583,-34.635770,-58.440818
419584,-34.623769,-58.416045
419586,-34.602215,-58.468168
419811,-32.923510,-68.844043
419821,-31.425015,-63.055751
419900,-34.548857,-58.456373
419971,-34.600028,-58.378875
419972,-34.654778,-58.483920
419980,-34.584228,-58.579929
420397,-34.672980,-58.381509
420512,-34.421954,-58.750055
420936,-34.524802,-58.485791
420939,-31.677110,-60.766559
420951,-34.615578,-58.526894
421064,-34.624393,-58.450386
421345,-32.947711,-68.864677
421378,-34.087059,-59.031056
421404,-38.261738,-57.849305
421411,-27.460561,-58.989802
421414,-26.823319,-65.305212
421416,-31.449940,-64.174034
421418,-34.917985,-58.381718
421443,-34.571261,-58.484685
421455,-51.624207,-69.215310
421467,-38.052386,-57.561045
421471,-26.834376,-65.203945
421488,-34.755586,-58.375898
421489,-34.582789,-58.398537
421490,-35.020765,-58.419146
421492,-32.955267,-68.795280
421495,-32.989642,-60.647158
421498,-26.821594,-65.246915
421515,-37.327738,-59.114282
421528,-34.647123,-58.601496
421529,-31.657134,-60.720551
421531,-26.825780,-65.202449
422376,-34.565336,-58.685983
422915,-34.076804,-59.029758
422928,-34.046373,-59.195984
424157,-34.574908,-59.108173
424167,-34.760809,-58.277872
424172,-34.638173,-58.375721
424181,-34.785643,-58.206097
424189,-34.634464,-58.483096
424196,-34.651896,-58.493053
424205,-34.573306,-58.432673
424207,-34.710611,-58.283892
424236,-33.056331,-68.825237
424241,-32.866004,-68.841465
424242,-33.035486,-68.878367
424255,-32.932032,-60.656841
424260,-31.641434,-60.685856
424267,-31.430707,-64.179429
424274,-26.820428,-65.267248
424279,-24.781502,-65.423401
424282,-35.981165,-62.725303
424435,-31.404172,-64.194583
424436,-31.410965,-64.167672
424437,-31.022161,-64.063941
424607,-34.514178,-58.477114
425142,-26.822032,-65.283754
425608,-34.635650,-58.446661
425658,-34.641305,-58.479846
425668,-34.638359,-58.405221
425676,-34.604957,-58.437923
427694,-31.423810,-64.183136
428308,-34.625915,-58.407743
428557,-31.667196,-60.757405
428951,-34.579437,-58.476902
429148,-38.957320,-68.049467
429824,-34.673667,-58.607593
429830,-34.923385,-57.952218
429835,-34.540901,-58.727189
429840,-32.975900,-68.854244
429841,-32.956217,-68.858459
429842,-32.932968,-60.653033
429845,-33.486952,-60.006627
429848,-34.561091,-59.127210
429849,-31.132289,-64.296444
429852,-38.002469,-57.578571
429853,-31.348422,-64.334206
429861,-34.564694,-59.118678
429863,-37.987131,-57.558475
429866,-34.748051,-58.584785
429868,-34.903307,-57.978622
429873,-32.979105,-68.787012
429874,-34.920654,-57.958709
429878,-34.920638,-57.946889
429884,-34.564865,-59.113796
429886,-34.748842,-58.392605
429892,-34.659430,-58.618589
430738,-35.572689,-58.007209
430873,-32.902712,-68.860770
430985,-32.918474,-60.764047
431647,-32.893790,-68.863353
431784,-34.607733,-58.377751
431877,-32.937199,-60.647227
431924,-34.665798,-59.404500
432041,-32.898684,-68.863358
432297,-34.715422,-58.330515
433141,-37.312120,-59.129689
433157,-34.525492,-58.552954
433160,-34.513755,-58.541878
433175,-32.879870,-68.841889
433176,-34.818225,-58.277289
433211,-31.643139,-60.719906
433216,-34.520925,-58.470271
433217,-31.612392,-60.676178
433219,-31.413850,-64.181676
433223,-33.000325,-60.640405
433260,-34.647639,-58.473900
433261,-34.606626,-58.432848
433275,-32.928614,-68.844905
433600,-38.679207,-62.222126
433691,-34.606560,-58.387646
433835,-34.660684,-58.797294
434487,-34.402152,-58.633525
434518,-32.935375,-68.850729
434563,-31.363133,-64.340612
434634,-34.552591,-58.435988
435105,-34.605910,-58.942311
435301,-34.395594,-58.738410
435433,-34.197543,-58.943339
435566,-34.561096,-58.459779
435568,-34.496519,-58.534887
435627,-34.572736,-58.401814
435943,-34.853295,-58.394609
436037,-34.400964,-58.629166
436138,-32.960516,-60.643448
436142,-34.536051,-58.705710
436306,-34.176311,-58.965908
436315,-34.835467,-58.473508
436317,-32.923856,-68.849248
436325,-34.535116,-58.744167
436332,-26.827362,-65.197717
436341,-32.866314,-68.833105
436352,-24.780143,-65.407855
436356,-34.101585,-59.027916
436357,-34.619856,-58.409556
436361,-34.452721,-58.848529
436367,-34.792369,-58.414641
436377,-32.929520,-68.857902
436378,-34.112364,-59.011064
436380,-36.622868,-64.302979
436381,-34.656123,-58.562931
436382,-34.743527,-58.393488
436426,-32.931827,-68.851655
436501,-32.951139,-68.855203
436512,-32.924988,-68.843233
436588,-35.622212,-61.364827
437222,-31.420083,-64.188776
437255,-34.108687,-59.027813
437290,-34.509089,-58.481640
437328,-34.524314,-58.468587
437329,-34.490185,-58.479450
437331,-34.491869,-58.511138
437333,-34.467885,-58.510222
437787,-29.143424,-59.271113
437791,-34.448365,-58.902673
438454,-34.558075,-58.434216
439093,-34.483036,-58.511571
439337,-31.463171,-64.187054
439342,-31.431109,-64.175563
439905,-34.563051,-58.611232
440169,-31.425672,-64.178753
440170,-31.455778,-64.236292
440171,-31.384381,-64.228485
440172,-31.373322,-64.277929
440178,-34.614556,-58.385032
440188,-34.559112,-58.461167
440200,-34.500271,-58.531753
440207,-34.622933,-58.416059
440208,-34.622518,-58.412835
440483,-34.615960,-58.921491
440515,-34.938574,-57.953672
440516,-38.013885,-57.541815
440530,-33.195035,-68.457517
440532,-31.662037,-68.578438
440534,-33.667695,-65.458731
440539,-37.879201,-67.798220
440540,-38.949844,-68.041657
440542,-32.951687,-60.647539
440552,-24.786785,-65.412006
440555,-34.558439,-58.434440
440587,-35.566120,-58.014749
440591,-34.164733,-58.953725
440593,-34.909386,-57.933606
440595,-34.608759,-58.380114
440617,-34.645996,-58.586814
440623,-34.580014,-58.496954
440684,-32.951096,-60.637892
441100,-34.624393,-58.450386
441695,-34.563710,-58.454830
441761,-34.579514,-58.462676
441778,-34.580935,-58.422340
442107,-34.098916,-59.023082
442113,-34.093120,-59.033529
442413,-34.583050,-58.397324
442922,-33.019176,-68.815938
443038,-31.430391,-64.187177
443039,-31.433420,-64.142127
443040,-31.363328,-64.219493
443041,-31.428057,-64.186960
443054,-34.098916,-59.023082
443093,-34.098916,-59.023082
443811,-32.946363,-68.812547
443852,-34.517296,-58.479058
443853,-34.549203,-58.479861
443855,-34.623557,-58.391307
443857,-34.602915,-58.404910
443858,-34.579230,-58.493130
443860,-34.584103,-58.408016
443867,-38.001213,-57.544679
443894,-31.247584,-61.491318
443904,-26.813731,-65.293013
443905,-35.470171,-69.582576
443908,-34.566242,-59.108746
443909,-38.942077,-68.054719
444024,-34.588287,-58.629119
444060,-31.354714,-64.246236
444151,-34.651566,-59.426345
444156,-34.558343,-58.450466
444162,-34.813462,-58.466910
444167,-34.739973,-58.407408
444168,-34.928696,-57.955659
444179,-34.044760,-59.196747
444181,-34.095048,-59.027745
444186,-26.799901,-60.426732
444190,-33.030032,-68.889569
444209,-34.798920,-58.387217
444602,-34.637448,-58.528053
444637,-34.611660,-58.454134
444643,-34.564220,-58.491549
444647,-38.945823,-67.976588
444657,-38.916959,-68.010242
444724,-38.953202,-68.223683
444728,-38.936001,-68.000182
444767,-34.590827,-58.502318
444768,-34.597582,-58.462011
444976,-34.587904,-58.479159
444977,-38.556418,-58.745675
444981,-34.512541,-58.492933
444982,-34.718143,-58.260286
444993,-34.631738,-58.476884
445007,-41.125922,-71.361296
445018,-34.816018,-58.467192
445019,-34.653076,-58.502342
445020,-34.612936,-58.510430
445021,-34.507911,-58.513863
445022,-34.689882,-58.474118
445023,-34.653604,-58.518267
445025,-34.615593,-58.480829
445027,-34.575239,-58.540611
445028,-34.545171,-58.461537
445029,-34.547809,-58.478007
445031,-34.562700,-58.460547
445048,-34.597914,-58.533528
445312,-34.599546,-58.510734
445386,-34.570243,-58.452340
445389,-34.574896,-58.414670
445392,-34.590741,-58.500096
445473,-34.599404,-58.435603
445562,-31.740530,-60.520705
445572,-31.528492,-68.574841
445582,-32.937591,-60.660226
445989,-34.552523,-58.435990
445990,-34.583464,-58.406193
446210,-34.571831,-58.411824
446216,-34.597217,-58.391977
446220,-34.454277,-58.910900
446226,-34.111668,-59.016923
446503,-33.468069,-61.487752
446572,-34.098034,-59.019317
446640,-34.618269,-58.431449
447129,-34.590903,-58.400892
447136,-34.799758,-58.277945
447140,-32.421415,-63.237266
447143,-34.400395,-58.651539
447148,-34.560006,-58.463021
447150,-34.615578,-58.519615
447285,-31.343336,-64.235759
447368,-31.393118,-58.012463
447369,-33.749272,-61.961181
447372,-34.169352,-58.959999
447385,-26.793629,-60.440566
447403,-31.659652,-64.423313
448080,-37.010932,-62.420523
448082,-34.571947,-58.431514
448686,-40.805851,-62.980934
448691,-31.375893,-64.225567
448709,-34.392886,-58.739098
448820,-34.704669,-58.392639
448949,-33.194404,-68.461469
449094,-24.785398,-65.406909
449095,-34.467694,-58.754360
449105,-24.757433,-65.394378
449106,-32.947738,-60.635569
449107,-32.953325,-60.641350
449108,-27.434849,-58.973173
449113,-27.472779,-59.001833
449116,-32.977916,-68.795409
449117,-34.619023,-58.508435
449203,-33.114752,-64.353581
449278,-31.447324,-64.176643
449297,-34.479570,-58.593808
449302,-34.462187,-58.503525
449400,-34.595616,-58.377959
449418,-32.940675,-60.660985
449448,-33.035455,-68.888147
449770,-31.537686,-68.540163
449905,-34.584103,-58.408016
449908,-34.635331,-58.508296
450093,-34.606830,-58.434956
450117,-34.615739,-58.456171
450126,-34.447377,-58.870249
450137,-34.608803,-58.448623
450139,-34.634271,-58.506812
450142,-34.634048,-58.509088
450317,-34.550819,-58.479816
450322,-34.441927,-58.779816
450323,-34.502342,-58.664544
450363,-32.826228,-60.713471
450376,-32.949080,-68.844292
450417,-34.644177,-58.482439
450419,-34.628589,-58.463531
450420,-34.606830,-58.434956
450421,-34.617778,-58.432853
450422,-34.633487,-58.443425
450546,-31.538607,-68.590507
450613,-34.582976,-58.393339
450637,-34.786775,-58.398771
450648,-32.897450,-68.846229
450668,-34.602603,-58.494192
450724,-34.629559,-58.409087
450727,-37.011957,-62.422703
450732,-34.927323,-57.966011
450734,-34.855430,-58.381833
450762,-34.817167,-58.453619
450859,-32.899846,-68.794121
451061,-34.766942,-58.431114
451194,-27.442821,-58.994635
451196,-31.633778,-60.701821
451204,-32.892897,-68.838335
451211,-34.619085,-58.456940
451212,-26.815012,-65.229763
451383,-32.889809,-68.870087
451432,-36.760725,-62.507171
451458,-31.420383,-64.495689
451459,-34.613152,-58.948023
451505,-34.861683,-58.387703
451941,-34.615293,-58.954217
452150,-37.328173,-59.118285
452156,-31.352792,-64.254035
452158,-37.333222,-59.130357
452161,-31.435850,-64.137181
452170,-34.664507,-58.697213
452172,-27.447634,-58.985091
452183,-37.998695,-57.556546
452297,-32.899815,-68.842015
452477,-34.498871,-58.552390
452480,-34.822190,-58.462027
452899,-34.488283,-58.500170
452904,-34.397138,-58.648042
453051,-37.329386,-59.132459
453052,-34.573613,-58.437684
453055,-27.476763,-58.957185
453056,-34.090924,-59.032463
453057,-34.558645,-59.113121
453066,-32.952904,-60.654304
453093,-34.572870,-58.419067
453094,-34.582802,-58.407818
453095,-34.558678,-58.450998
453176,-32.914958,-68.824076
453241,-32.893598,-68.867660
453244,-45.878938,-67.502591
453245,-45.877813,-67.519770
453527,-31.413763,-64.163169
453537,-32.837925,-68.870426
453542,-45.838163,-67.471035
453545,-45.859827,-67.474160
453546,-45.876636,-67.508053
453596,-31.419102,-64.173766
453597,-31.429976,-64.180465
454088,-34.759316,-58.219691
454173,-32.410461,-63.243645
454227,-36.621017,-64.304616
454328,-34.590554,-58.438023
454466,-35.449625,-60.881590
455097,-34.738490,-58.259569
455103,-34.597563,-58.461845
455104,-31.412927,-64.484262
455105,-31.406733,-64.480464
455319,-32.890059,-68.837108
455330,-31.350696,-64.247700
455331,-38.030294,-57.557500
455333,-34.564726,-59.109769
455336,-34.094996,-59.033824
455354,-34.530189,-58.507668
455355,-34.756287,-58.219616
455365,-34.803945,-58.280180
455371,-34.509373,-58.485836
455372,-34.491869,-58.511138
455377,-34.452609,-58.541716
455379,-34.524314,-58.468587
455380,-34.549474,-58.706199
455381,-34.443509,-58.559175
455437,-34.637553,-58.550132
455663,-34.831132,-57.966683
455724,-38.023768,-57.558842
456198,-34.605136,-58.392054
456200,-34.934593,-57.966669
456212,-29.115190,-59.655732
456214,-31.164275,-64.321191
456220,-34.418920,-58.843239
456224,-34.575752,-58.448797
456377,-38.961417,-68.251785
456381,-38.949191,-68.224467
456442,-32.976212,-68.877365
456455,-34.597949,-58.379736
456517,-45.881267,-67.517782
456532,-24.171665,-65.311745
456541,-32.976212,-68.877365
456955,-31.422225,-64.183504
456957,-37.850781,-58.258900
456959,-34.609396,-58.398835
456961,-32.953211,-60.645628
457121,-34.552987,-58.464694
457172,-34.856985,-58.517782
457190,-32.972060,-60.630072
457327,-33.334179,-60.210502
457340,-38.940790,-67.988865
457341,-38.951637,-68.066739
457557,-34.733464,-58.408113
457560,-26.835318,-65.208879
457563,-26.821423,-65.203947
457631,-34.579098,-58.481420
457645,-24.783660,-65.406285
458557,-32.990323,-60.646912
458587,-34.594584,-58.513601
458589,-34.610684,-58.518334
458590,-34.598676,-58.514380
458591,-34.599480,-58.510795
458596,-34.594584,-58.513601
458597,-34.590457,-58.501442
458598,-34.598676,-58.514380
458599,-34.598676,-58.514380
458600,-34.599480,-58.510795
458793,-38.955810,-68.218197
458794,-38.965378,-68.210737
458863,-37.299121,-59.148661
458866,-37.341811,-59.121349
459175,-34.560363,-59.115294
459176,-34.609039,-58.509806
460031,-34.539848,-58.489414
460033,-27.461237,-58.975369
460054,-34.664816,-58.578620
460147,-34.570507,-58.444159
460956,-34.623392,-58.436234
461276,-34.657175,-58.590324
461277,-34.693740,-58.606195
461361,-34.571478,-58.430469
461368,-32.879720,-68.837749
461370,-32.900578,-68.816336
461372,-34.580141,-58.543070
461374,-24.786835,-65.414362
461402,-31.731331,-60.494236
461404,-32.923282,-60.668681
461407,-34.591588,-58.501472
461408,-34.579262,-58.468271
461420,-33.329495,-60.224787
461444,-34.724558,-58.256077
461445,-34.625824,-58.457412
461446,-34.595035,-58.431230
461516,-35.563697,-58.016981
461585,-24.787614,-65.425446
461662,-33.332015,-60.216657
461859,-34.598503,-58.444670
462479,-34.596990,-58.394665
462480,-34.559112,-58.461167
462703,-34.737420,-58.260338
462705,-34.699543,-58.291331
462712,-38.558174,-58.742572
462919,-31.450327,-64.186914
462943,-34.608735,-58.430292
462944,-34.599365,-58.512280
462973,-34.569691,-58.419286
462976,-34.560034,-58.448508
462981,-34.572076,-58.489424
462984,-34.565580,-58.433372
463432,-34.648650,-59.416942
463435,-36.781122,-59.858819
463466,-31.413993,-64.162353
463654,-27.444755,-58.974415
463711,-24.184842,-65.314888
464154,-29.404699,-66.860661
464176,-31.540892,-68.493240
464177,-31.475674,-68.651677
464178,-31.541282,-68.497834
464179,-31.738244,-67.988652
464180,-31.534213,-68.538595
464494,-28.547021,-56.044241
464496,-28.549814,-56.034888
465070,-34.623347,-58.372060
